…
```r
## unnest() to always retrace your steps
data3_time_invariants2 %>% unnest(data)
```

```
## # A tibble: 293 × 6
## # Groups:   subject [10]
##    subject per_week   stressors stressors_mean stressors_sd stressors_range
##      <dbl> <date>         <dbl>          <dbl>        <dbl>           <dbl>
##  1       8 2008-08-17         1          1            1                   2
##  2       8 2008-08-24         0          1            1                   2
##  3       8 2008-08-31         2          1            1                   2
##  4      15 2007-11-04         2          0.178        0.684               4
##  5      15 2007-11-11         0          0.178        0.684               4
##  6      15 2007-11-18         0          0.178        0.684               4
##  7      15 2007-11-25         0          0.178        0.684               4
##  8      15 2007-12-02         0          0.178        0.684               4
##  9      15 2007-12-09         0          0.178        0.684               4
## 10      15 2007-12-16         0          0.178        0.684               4
## # … with 283 more rows
```
…
